GTKWave/simulation.vcd
$date
  Tue Jul 31 13:46:52 2018
$end
$version
  GHDL v0
$end
$timescale
  1 fs
$end
$var reg 1 ! t_clock $end
$var reg 1 " t_reset $end
$var reg 1 # t_x $end
$var reg 1 $ t_s $end
$scope module uut $end
$var reg 1 % clock $end
$var reg 1 & reset $end
$var reg 1 ' x $end
$var reg 1 ( s $end
$comment current_state is not handled $end
$comment next_state is not handled $end
$upscope $end
$enddefinitions $end
#0
1!
0"
1#
0$
1%
0&
1'
0(
#100000000
0!
0%
#150000000
0#
0'
#250000000
1!
1%
#300000000
#400000000
0!
0%
#450000000
1#
1'
#550000000
1!
1%
#600000000
#700000000
0!
0%
#750000000
#850000000
1!
1$
1%
1(
#900000000
#1000000000
0!
0%
#1050000000
#1150000000
1!
0$
1%
0(
#1200000000
#1300000000
0!
0%
#1350000000
0#
0'
#1450000000
1!
1%
#1500000000
#1600000000
0!
0%
#1650000000
1#
1'
#1750000000
1!
1%
#1800000000
#1900000000
0!
0%
#1950000000
#2050000000
1!
1$
1%
1(
#2100000000
#2200000000
0!
1"
0$
0%
1&
0(
#2250000000
#2350000000
1!
1%
#2400000000
#2500000000
0!
0"
0%
0&
#2550000000
#2650000000
1!
1%
#2700000000
#2800000000
0!
0%
#2850000000
#2950000000
1!
1%
#3000000000
#3100000000
0!
0%
#3150000000
0#
0'
#3250000000
1!
1%
#3300000000
#3400000000
0!
0%
#3450000000
#3550000000
1!
1%
#3600000000
#3700000000
0!
0%
#3750000000
1#
1'
#3850000000
1!
1%
#3900000000
#4000000000
0!
0%
#4050000000
0#
0'
#4150000000
1!
1%
#4200000000
#4300000000
0!
0%
#4350000000
1#
1'
#4450000000
1!
1%
#4500000000
#4600000000
0!
0%
#4650000000
#4750000000
1!
1$
1%
1(
